Tile Type 	: 	Colour(Hex)

Grass		:	007F0E
Pavement	:	808080
Water		:	00137F
Mountains	:	000000
Stone Floor	:	606060
Bridge		:	7F3300
Wall		:	404040
Team1Spawn	:	0026FF
Team1Goal	:	0094FF
Team2Spawn	:	FF0000
Team2Goal	:	FF6A00
GrailSpawn	:	FFD800